{
	"info": {
		"_postman_id": "66d12c2a-1a42-4a86-a7b4-bc3847a32573",
		"name": "Sample Postman Collection",
		"description": "A sample collection to demonstrate collections as a set of related requests",
		"schema": "https://schema.getpostman.com/json/collection/v2.1.0/collection.json",
		"_exporter_id": "8439033"
	},
	"item": [
		{
			"name": "GET request",
			"event": [
				{
					"listen": "test",
					"script": {
						"exec": [
							"pm.test('expect response be 200', function () {",
							"    pm.response.to.be.ok",
							"})",
							"pm.test('expect response json contain args', function () {",
							"    pm.expect(pm.response.json().args).to.have.property('source')",
							"      .and.equal('newman-sample-github-collection')",
							"})"
						],
						"type": "text/javascript"
					}
				}
			],
			"request": {
				"method": "GET",
				"header": [
					{
						"key": "Authorization",
						"value": "Bearer fh85nVFwrYhT_lwC9GA2NLecFv5R8KFyXWGulB2tB1Qy3hZ_xw",
						"type": "text"
					}
				],
				"url": {
					"raw": "https://crudapi.co.uk/api/v1/mobil",
					"protocol": "https",
					"host": [
						"crudapi",
						"co",
						"uk"
					],
					"path": [
						"api",
						"v1",
						"mobil"
					]
				}
			},
			"response": []
		},
		{
			"name": "POST request",
			"request": {
				"method": "POST",
				"header": [
					{
						"key": "Authorization",
						"value": "Bearer fh85nVFwrYhT_lwC9GA2NLecFv5R8KFyXWGulB2tB1Qy3hZ_xw",
						"type": "text"
					}
				],
				"body": {
					"mode": "raw",
					"raw": "[\n    {\n        \"title\": \"nama Mobil\", \n        \"harga\": \"50000000\",\n        \"totalKM\": \"30000\",\n        \"unitImage\": \"https://encrypted-tbn0.gstatic.com/images?q=tbn:ANd9GcRrhVioZcYZix5OUz8iGpzfkBJDzc7qPURKJQ&usqp=CAU\"\n    }\n]"
				},
				"url": {
					"raw": "https://crudapi.co.uk/api/v1/mobil",
					"protocol": "https",
					"host": [
						"crudapi",
						"co",
						"uk"
					],
					"path": [
						"api",
						"v1",
						"mobil"
					]
				}
			},
			"response": []
		},
		{
			"name": "PUT request",
			"request": {
				"method": "PUT",
				"header": [
					{
						"key": "Authorization",
						"value": "Bearer fh85nVFwrYhT_lwC9GA2NLecFv5R8KFyXWGulB2tB1Qy3hZ_xw",
						"type": "text"
					}
				],
				"body": {
					"mode": "raw",
					"raw": "[\n    {\n        \"_uuid\": \"a8cf1578-1b34-43b1-ad3a-2d135ff6f42f\",\n        \"title\": \"Nama Mobil\", \n        \"harga\": \"10000000\",\n        \"totalKM\": \"88000\",\n        \"unitImage\": \"https://encrypted-tbn0.gstatic.com/images?q=tbn:ANd9GcRrhVioZcYZix5OUz8iGpzfkBJDzc7qPURKJQ&usqp=CAU\"\n    }\n]"
				},
				"url": {
					"raw": "https://crudapi.co.uk/api/v1/mobil",
					"protocol": "https",
					"host": [
						"crudapi",
						"co",
						"uk"
					],
					"path": [
						"api",
						"v1",
						"mobil"
					]
				}
			},
			"response": []
		},
		{
			"name": "DELETE Request",
			"request": {
				"method": "DELETE",
				"header": [
					{
						"key": "Authorization",
						"value": "Bearer fh85nVFwrYhT_lwC9GA2NLecFv5R8KFyXWGulB2tB1Qy3hZ_xw",
						"type": "text"
					}
				],
				"body": {
					"mode": "raw",
					"raw": "[\n    {\n        \"_uuid\": \"8c21d342-65d2-4a12-bba9-084c01a9a80d\"\n    }\n]"
				},
				"url": {
					"raw": "https://crudapi.co.uk/api/v1/mobil",
					"protocol": "https",
					"host": [
						"crudapi",
						"co",
						"uk"
					],
					"path": [
						"api",
						"v1",
						"mobil"
					]
				}
			},
			"response": []
		}
	]
}
